Web APIs with R Book Club – Do other things with APIs
…
Multiple requests

Motivating example: Trello cards as data

cards <- tibble::tibble(
  name = glue::glue("*** Sample card for {state.abb} ***"),
  desc = glue::glue("A card to do something for {state.name}.")
)
cards

#> # A tibble: 50 × 2
#>    name                       desc                                   
#>    <glue>                     <glue>                                 
#>  1 *** Sample card for AL *** A card to do something for Alabama.    
#>  2 *** Sample card for AK *** A card to do something for Alaska.     
#>  3 *** Sample card for AZ *** A card to do something for Arizona.    
#>  4 *** Sample card for AR *** A card to do something for Arkansas.   
#>  5 *** Sample card for CA *** A card to do something for California. 
#>  6 *** Sample card for CO *** A card to do something for Colorado.   
#>  7 *** Sample card for CT *** A card to do something for Connecticut.
#>  8 *** Sample card for DE *** A card to do something for Delaware.   
#>  9 *** Sample card for FL *** A card to do something for Florida.    
#> 10 *** Sample card for GA *** A card to do something for Georgia.    
#> # ℹ 40 more rows
…
