Web APIs with R Book Club - How can I get started with APIs?
…
Rectangular data is nice because then you can use normal tidyverse functions

There’s a tidyverse function that I think handles returns from APIs better than what they show there.

You might need to play around with unnest_wider vs unnest_longer (we’ll see examples in a sec). Don’t feel like you’re doing something wrong!

In a couple chapters, we’ll see how to use the API spec (when it’s available) to help us guess less.

Rectangling APIs.guru’s list

all_apis_df <- all_apis |>
  tibble::enframe(name = "api_name")
all_apis_df

#> # A tibble: 2,529 × 2
#>    api_name                      value           
#>    <chr>                         <list>          
#>  1 1forge.com                    <named list [3]>
#>  2 1password.com:events          <named list [3]>
#>  3 1password.local:connect       <named list [3]>
#>  4 6-dot-authentiqio.appspot.com <named list [3]>
#>  5 ably.io:platform              <named list [3]>
#>  6 ably.net:control              <named list [3]>
#>  7 abstractapi.com:geolocation   <named list [3]>
#>  8 adafruit.com                  <named list [3]>
#>  9 adobe.com:aem                 <named list [3]>
#> 10 adyen.com:AccountService      <named list [3]>
#> # ℹ 2,519 more rows
…
setdiff(
  names(all_apis_df$value[[1]]),
  names(all_apis_df$value[[11]])
)

#> character(0)

Our first unnest

all_apis_versions <- all_apis_df |>
  tidyr::unnest_wider(value)
all_apis_versions

#> # A tibble: 2,529 × 4
#>    api_name                      added                    preferred versions    
#>    <chr>                         <chr>                    <chr>     <list>      
#>  1 1forge.com                    2017-05-30T08:34:14.000Z 0.0.1     <named list>
#>  2 1password.com:events          2021-07-19T10:17:09.188Z 1.0.0     <named list>
#>  3 1password.local:connect       2021-04-16T15:56:45.939Z 1.5.7     <named list>
#>  4 6-dot-authentiqio.appspot.com 2017-03-15T14:45:58.000Z 6         <named list>
#>  5 ably.io:platform              2019-07-13T11:28:07.000Z 1.1.0     <named list>
#>  6 ably.net:control              2021-07-26T09:45:31.536Z 1.0.14    <named list>
#>  7 abstractapi.com:geolocation   2021-04-14T17:12:40.648Z 1.0.0     <named list>
#>  8 adafruit.com                  2018-02-10T10:41:43.000Z 2.0.0     <named list>
#>  9 adobe.com:aem                 2019-01-03T07:01:34.000Z 3.7.1-pr… <named list>
#> 10 adyen.com:AccountService      2023-02-17T11:02:20.620Z 6         <named list>
#> # ℹ 2,519 more rows
…
all_apis_versions$versions[[10]] |> names()

#> [1] "3" "4" "5" "6"

Unnest 2

all_apis_preferred <- all_apis_versions |>
  tidyr::unnest_longer(versions, indices_to = "version") |>
  dplyr::filter(preferred == version) |>
  dplyr::select(api_name, version, versions)

all_apis_preferred

#> # A tibble: 2,529 × 3
#>    api_name                      version     versions        
#>    <chr>                         <chr>       <named list>    
#>  1 1forge.com                    0.0.1       <named list [7]>
#>  2 1password.com:events          1.0.0       <named list [7]>
#>  3 1password.local:connect       1.5.7       <named list [7]>
#>  4 6-dot-authentiqio.appspot.com 6           <named list [7]>
#>  5 ably.io:platform              1.1.0       <named list [7]>
#>  6 ably.net:control              1.0.14      <named list [7]>
#>  7 abstractapi.com:geolocation   1.0.0       <named list [8]>
#>  8 adafruit.com                  2.0.0       <named list [7]>
#>  9 adobe.com:aem                 3.7.1-pre.0 <named list [7]>
#> 10 adyen.com:AccountService      6           <named list [7]>
#> # ℹ 2,519 more rows
…
all_apis_preferred_wide <- all_apis_preferred |>
  tidyr::unnest_wider(versions)

All APIs

all_apis |> 
  tibble::enframe(name = "api_name") |> 
  tidyr::unnest_wider(value) |> 
  tidyr::unnest_longer(versions, indices_to = "version") |>
  dplyr::filter(preferred == version) |>
  dplyr::select(api_name, version, versions) |>
  tidyr::unnest_wider(versions)

#> # A tibble: 2,529 × 10
#>    api_name         version added info         updated swaggerUrl swaggerYamlUrl
#>    <chr>            <chr>   <chr> <list>       <chr>   <chr>      <chr>         
#>  1 1forge.com       0.0.1   2017… <named list> 2017-0… https://a… https://api.a…
#>  2 1password.com:e… 1.0.0   2021… <named list> 2023-0… https://a… https://api.a…
#>  3 1password.local… 1.5.7   2021… <named list> 2023-0… https://a… https://api.a…
#>  4 6-dot-authentiq… 6       2017… <named list> 2021-0… https://a… https://api.a…
#>  5 ably.io:platform 1.1.0   2019… <named list> 2021-0… https://a… https://api.a…
#>  6 ably.net:control 1.0.14  2021… <named list> 2021-0… https://a… https://api.a…
#>  7 abstractapi.com… 1.0.0   2021… <named list> 2021-0… https://a… https://api.a…
#>  8 adafruit.com     2.0.0   2018… <named list> 2021-0… https://a… https://api.a…
#>  9 adobe.com:aem    3.7.1-… 2019… <named list> 2023-0… https://a… https://api.a…
#> 10 adyen.com:Accou… 6       2023… <named list> 2023-0… https://a… https://api.a…
#> # ℹ 2,519 more rows
#> # ℹ 3 more variables: openapiVer <chr>, link <chr>, externalDocs <list>

If we dug in a little more, we’d see that info is variable-like, but all over the place; different APIs have different values

APIs.guru adds a couple things in here, including a “category” that we’ll use

Filter APIs

all_apis_preferred_wide |>
  tidyr::hoist(info, categories = "x-apisguru-categories") |>
  dplyr::rowwise() |>
  dplyr::filter("open_data" %in% categories) |>
  dplyr::ungroup()

#> # A tibble: 318 × 11
#>    api_name             version added categories info         updated swaggerUrl
#>    <chr>                <chr>   <chr> <list>     <list>       <chr>   <chr>     
#>  1 amentum.space:aviat… 1.5.0   2021… <chr [2]>  <named list> 2023-0… https://a…
#>  2 amentum.space:gravi… 1.1.1   2021… <chr [2]>  <named list> 2021-0… https://a…
#>  3 amentum.space:space… 1.1.2   2021… <chr [2]>  <named list> 2023-0… https://a…
#>  4 api.gov.uk:vehicle-… 1.1.0   2020… <chr [1]>  <named list> 2021-0… https://a…
#>  5 apis.guru            2.2.0   2015… <chr [2]>  <named list> 2023-0… https://a…
#>  6 apisetu.gov.in:aaha… 3.0.0   2021… <chr [1]>  <named list> 2021-0… https://a…
#>  7 apisetu.gov.in:acko  3.0.0   2021… <chr [1]>  <named list> 2021-0… https://a…
#>  8 apisetu.gov.in:agtr… 3.0.0   2021… <chr [1]>  <named list> 2021-0… https://a…
#>  9 apisetu.gov.in:ahar… 3.0.0   2021… <chr [1]>  <named list> 2021-0… https://a…
#> 10 apisetu.gov.in:aiim… 3.0.0   2021… <chr [1]>  <named list> 2021-0… https://a…
#> # ℹ 308 more rows
#> # ℹ 4 more variables: swaggerYamlUrl <chr>, openapiVer <chr>, link <chr>,
#> #   externalDocs <list>
…
