{"api_version":"1.0","pagination":{"count":1198,"is_count_exact":true,"page":1,"pages":60,"per_page":20},"results":[{"active_through":2020,"candidate_id":"P00011569","candidate_inactive":false,"candidate_status":"N","cycles":[2020,2022],"district":"00","district_number":0,"election_districts":["00"],"election_years":[2020],"federal_funds_flag":false,"first_file_date":"2019-04-23","has_raised_funds":false,"inactive_election_years":null,"incumbent_challenge":"C","incumbent_challenge_full":"Challenger","last_f2_date":"2019-04-23","last_file_date":"2019-04-23","load_date":"2021-12-08T06:50:50","name":"753, JO","office":"P","office_full":"President","party":"NNE","party_full":"NONE","state":"US"},{"active_through":2020,"candidate_id":"P00012732","candidate_inactive":false,"candidate_status":"N","cycles":[2020,2022,2024],"district":"00","district_number":0,"election_districts":["00"],"election_years":[2020],"federal_funds_flag":false,"first_file_date":"2019-07-09","has_raised_funds":false,"inactive_election_years":null,"incumbent_challenge":"C","incumbent_challenge_full":"Challenger","last_f2_date":"2020-04-19","last_file_date":"2020-04-19","load_date":"2021-12-08T06:50:50","name":"ABRAMSON, MAX","office":"P","office_full":"President","party":"VET","party_full":"VETERANS PARTY","state":"US"},{"active_through":2020,"candidate_id":"P00006270","candidate_inactive":false,"candidate_status":"N","cycles":[2018,2020,2022,2024],"district":"00","district_number":0,"election_districts":["00"],"election_years":[2020],"federal_funds_flag":false,"first_file_date":"2017-08-25","has_raised_funds":false,"inactive_election_years":null,"incumbent_challenge":"C","incumbent_challenge_full":"Challenger","last_f2_date":"2017-08-25","last_file_date":"2017-08-25","load_date":"2021-12-08T06:50:50","name":"ABRAUGH, MATTHEW M. MR.","office":"P","office_full":"President","party":"NON","party_full":"NON-PARTY","state":"US"},{"active_through":2020,"candidate_id":"P00009217","candidate_inactive":false,"candidate_status":"N","cycles":[2020,2022,2024],"district":"00","district_number":0,"election_districts":["00"],"election_years":[2020],"federal_funds_flag":false,"first_file_date":"2019-01-12","has_raised_funds":false,"inactive_election_years":null,"incumbent_challenge":"C","incumbent_challenge_full":"Challenger","last_f2_date":"2019-01-12","last_file_date":"2019-01-12","load_date":"2021-12-08T06:50:50","name":"ACKER, BRANDON W","office":"P","office_full":"President","party":"DEM","party_full":"DEMOCRATIC PARTY","state":"US"},{"active_through":2020,"candidate_id":"P00014241","candidate_inactive":false,"candidate_status":"N","cycles":[2020,2022,2024],"district":"00","district_number":0,"election_districts":["00"],"election_years":[2020],"federal_funds_flag":false,"first_file_date":"2019-11-07","has_raised_funds":true,"inactive_election_years":null,"incumbent_challenge":"C","incumbent_challenge_full":"Challenger","last_f2_date":"2019-11-07","last_file_date":"2019-11-07","load_date":"2021-12-08T06:50:50","name":"ACKER, RYAN","office":"P","office_full":"President","party":"NON","party_full":"NON-PARTY","state":"US"},{"active_through":2020,"candidate_id":"P00008979","candidate_inactive":false,"candidate_status":"N","cycles":[2018,2020],"district":"00","district_number":0,"election_districts":["00"],"election_years":[2020],"federal_funds_flag":false,"first_file_date":"2018-12-10","has_raised_funds":false,"inactive_election_years":null,"incumbent_challenge":"C","incumbent_challenge_full":"Challenger","last_f2_date":"2018-12-10","last_file_date":"2018-12-10","load_date":"2019-01-28T21:05:11","name":"ACORD, ROBERT BRADFORD LEE","office":"P","office_full":"President","party":"DEM","party_full":"DEMOCRATIC PARTY","state":"US"},{"active_through":2020,"candidate_id":"P00016469","candidate_inactive":false,"candidate_status":"N","cycles":[2020,2022,2024],"district":"00","district_number":0,"election_districts":["00"],"election_years":[2020],"federal_funds_flag":false,"first_file_date":"2020-07-04","has_raised_funds":false,"inactive_election_years":null,"incumbent_challenge":"C","incumbent_challenge_full":"Challenger","last_f2_date":"2020-07-07","last_file_date":"2020-07-07","load_date":"2021-12-08T06:50:50","name":"ADALIA, ZOILO MR","office":"P","office_full":"President","party":"DGR","party_full":"DESERT GREEN PARTY","state":"US"},{"active_through":2020,"candidate_id":"P00015529","candidate_inactive":false,"candidate_status":"N","cycles":[2020,2022],"district":"00","district_number":0,"election_districts":["00"],"election_years":[2020],"federal_funds_flag":false,"first_file_date":"2020-02-20","has_raised_funds":false,"inactive_election_years":null,"incumbent_challenge":"C","incumbent_challenge_full":"Challenger","last_f2_date":"2020-02-20","last_file_date":"2020-02-20","load_date":"2021-12-08T06:50:50","name":"ADAMS, EMILY ROSE MS","office":"P","office_full":"President","party":"DEM","party_full":"DEMOCRATIC PARTY","state":"US"},{"active_through":2020,"candidate_id":"P00009563","candidate_inactive":false,"candidate_status":"N","cycles":[2020,2022,2024],"district":"00","district_number":0,"election_districts":["00"],"election_years":[2020],"federal_funds_flag":false,"first_file_date":"2019-01-27","has_raised_funds":false,"inactive_election_years":null,"incumbent_challenge":"C","incumbent_challenge_full":"Challenger","last_f2_date":"2019-01-27","last_file_date":"2019-01-27","load_date":"2021-12-08T06:50:50","name":"AEBI, ESTHER CAROLINE","office":"P","office_full":"President","party":"DEM","party_full":"DEMOCRATIC PARTY","state":"US"},{"active_through":2020,"candidate_id":"P00014688","candidate_inactive":false,"candidate_status":"N","cycles":[2020],"district":"00","district_number":0,"election_districts":["00"],"election_years":[2020],"federal_funds_flag":false,"first_file_date":"2019-12-03","has_raised_funds":false,"inactive_election_years":null,"incumbent_challenge":"C","incumbent_challenge_full":"Challenger","last_f2_date":"2019-12-03","last_file_date":"2019-12-03","load_date":"2019-12-30T21:08:41","name":"AFZAL, INNAYA FATIMA MS.","office":"P","office_full":"President","party":"REP","party_full":"REPUBLICAN PARTY","state":"US"},{"active_through":2020,"candidate_id":"P00006247","candidate_inactive":false,"candidate_status":"N","cycles":[2018,2020,2022,2024],"district":"00","district_number":0,"election_districts":["00"],"election_years":[2020],"federal_funds_flag":false,"first_file_date":"2017-08-16","has_raised_funds":false,"inactive_election_years":null,"incumbent_challenge":"C","incumbent_challenge_full":"Challenger","last_f2_date":"2017-08-16","last_file_date":"2017-08-16","load_date":"2021-12-08T06:50:50","name":"AGUIAR, MICHAEL","office":"P","office_full":"President","party":"DEM","party_full":"DEMOCRATIC PARTY","state":"US"},{"active_through":2020,"candidate_id":"P00011536","candidate_inactive":false,"candidate_status":"N","cycles":[2020],"district":"00","district_number":0,"election_districts":["00"],"election_years":[2020],"federal_funds_flag":false,"first_file_date":"2019-04-21","has_raised_funds":false,"inactive_election_years":null,"incumbent_challenge":"C","incumbent_challenge_full":"Challenger","last_f2_date":"2019-04-21","last_file_date":"2019-04-21","load_date":"2019-06-10T21:08:12","name":"AGUN, BURAK","office":"P","office_full":"President","party":"DEM","party_full":"DEMOCRATIC PARTY","state":"US"},{"active_through":2020,"candidate_id":"P00016279","candidate_inactive":false,"candidate_status":"N","cycles":[2020],"district":"00","district_number":0,"election_districts":["00"],"election_years":[2020],"federal_funds_flag":false,"first_file_date":"2020-06-11","has_raised_funds":false,"inactive_election_years":null,"incumbent_challenge":"C","incumbent_challenge_full":"Challenger","last_f2_date":"2020-06-11","last_file_date":"2020-06-11","load_date":"2020-08-21T01:04:24","name":"AHL, JOSEPH BRIAN MR","office":"P","office_full":"President","party":"UN","party_full":"UNAFFILIATED","state":"US"},{"active_through":2024,"candidate_id":"P00008193","candidate_inactive":false,"candidate_status":"N","cycles":[2018,2020,2022,2024],"district":"00","district_number":0,"election_districts":["00","00"],"election_years":[2020,2024],"federal_funds_flag":false,"first_file_date":"2018-08-26","has_raised_funds":true,"inactive_election_years":null,"incumbent_challenge":"C","incumbent_challenge_full":"Challenger","last_f2_date":"2022-05-22","last_file_date":"2022-05-22","load_date":"2023-01-12T22:24:01","name":"AHN, SHINAE MS","office":"P","office_full":"President","party":"DEM","party_full":"DEMOCRATIC PARTY","state":"US"},{"active_through":2020,"candidate_id":"P00016931","candidate_inactive":false,"candidate_status":"N","cycles":[2020,2022,2024],"district":"00","district_number":0,"election_districts":["00"],"election_years":[2020],"federal_funds_flag":false,"first_file_date":"2020-07-31","has_raised_funds":false,"inactive_election_years":null,"incumbent_challenge":"C","incumbent_challenge_full":"Challenger","last_f2_date":"2020-07-31","last_file_date":"2020-08-11","load_date":"2021-12-08T06:50:50","name":"AKERS, ROBERT GALE MR.","office":"P","office_full":"President","party":"W","party_full":"WRITE-IN","state":"US"},{"active_through":2020,"candidate_id":"P00015693","candidate_inactive":false,"candidate_status":"N","cycles":[2020],"district":"00","district_number":0,"election_districts":["00"],"election_years":[2020],"federal_funds_flag":false,"first_file_date":"2020-03-13","has_raised_funds":false,"inactive_election_years":null,"incumbent_challenge":"C","incumbent_challenge_full":"Challenger","last_f2_date":"2020-03-13","last_file_date":"2020-03-13","load_date":"2020-03-18T21:13:37","name":"ALAMEDA, JENNIFER","office":"P","office_full":"President","party":"IND","party_full":"INDEPENDENT","state":"US"},{"active_through":2020,"candidate_id":"P00009852","candidate_inactive":false,"candidate_status":"N","cycles":[2020,2022,2024],"district":"00","district_number":0,"election_districts":["00"],"election_years":[2020],"federal_funds_flag":false,"first_file_date":"2019-02-02","has_raised_funds":false,"inactive_election_years":null,"incumbent_challenge":"C","incumbent_challenge_full":"Challenger","last_f2_date":"2019-02-02","last_file_date":"2019-02-02","load_date":"2021-12-08T06:50:50","name":"ALCANTARA, CARLOS ANTONIO","office":"P","office_full":"President","party":"NNE","party_full":"NONE","state":"US"},{"active_through":2020,"candidate_id":"P00014480","candidate_inactive":false,"candidate_status":"N","cycles":[2020],"district":"00","district_number":0,"election_districts":["00"],"election_years":[2020],"federal_funds_flag":false,"first_file_date":"2019-11-18","has_raised_funds":false,"inactive_election_years":null,"incumbent_challenge":"C","incumbent_challenge_full":"Challenger","last_f2_date":"2019-11-18","last_file_date":"2019-11-18","load_date":"2019-11-25T21:06:05","name":"ALCORN, ETHAN WELD","office":"P","office_full":"President","party":"IND","party_full":"INDEPENDENT","state":"US"},{"active_through":2020,"candidate_id":"P00012252","candidate_inactive":false,"candidate_status":"N","cycles":[2020,2022,2024],"district":"00","district_number":0,"election_districts":["00"],"election_years":[2020],"federal_funds_flag":false,"first_file_date":"2019-06-05","has_raised_funds":false,"inactive_election_years":null,"incumbent_challenge":"C","incumbent_challenge_full":"Challenger","last_f2_date":"2019-06-05","last_file_date":"2019-06-05","load_date":"2021-12-08T06:50:50","name":"ALEAANDRIA-WILLIAMS, MARION LATROY MR.","office":"P","office_full":"President","party":"DEM","party_full":"DEMOCRATIC PARTY","state":"US"},{"active_through":2020,"candidate_id":"P00016774","candidate_inactive":false,"candidate_status":"N","cycles":[2020,2022,2024],"district":"00","district_number":0,"election_districts":["00"],"election_years":[2020],"federal_funds_flag":false,"first_file_date":"2020-07-16","has_raised_funds":false,"inactive_election_years":null,"incumbent_challenge":"C","incumbent_challenge_full":"Challenger","last_f2_date":"2020-07-16","last_file_date":"2020-07-16","load_date":"2021-12-08T06:50:50","name":"ALEMAN, JULIAN MICHAEL","office":"P","office_full":"President","party":"NNE","party_full":"NONE","state":"US"}]}
